00000111
01001110
00000000
00000101
00000001
00010111
10010110
00011010
00000001
00011000
10010110
00011010
00000000
00001001
00000001
00011001
10010110
00011010
00000001
00011010
10010110
00011010
00000000
01010000
00000111
00011100
00000000
01010001
00000010
00001101
00000000
00000101
00000010
10110000
00000000
00001001
00000010
10110001
00000000
00001101
00000010
10110010
00001010
00000000
00011101
00000001
01010000
10100110
00110101
00000000
00110000
00000111
01000111
00000001
01010001
10100110
00111101
00000000
00110010
00000111
01000111
00000001
01010010
10100110
01000101
00000000
00110001
00000111
01000111
00000000
00110011
00000001
00001111
00000011
10110010
00000010
10110001
00001010
00001001
00101011
00001001
00000010
00000000
00000101
00000001
00000110
01010100
11000100
00000010
00000101
00000001
01010000
10010101
00000011
00000111
00000000
00000111
00000001
01010000
10010110
01110010
00000000
00001001
00000001
00001010
01010100
11000100
00000010
00001001
00000001
01010000
10010101
00000011
00001011
00000000
00001011
00000001
01010001
10010110
01111010
00000111
01010000
00001000
00000000
10100000
00000001
00011110
10010110
10000101
00000010
00011110
00000010
10010001
00000000
10100011
00000010
00011101
00000010
10010010
00000000
00011011
00000010
10010000
00000001
00011100
10010110
10010111
00000010
11110010
00000010
00011100
00000000
11110000
00000010
11010000
00000001
01010000
10100110
10100111
00000000
01011011
00000010
11000000
00000010
11000001
00000111
10101011
00000011
11000000
00000011
11000001
00001001
00101011
00001000
00000000
00010101
00000010
00000101
00000000
00010110
00000010
00001001
00001001
00000010
00000000
10100001
00000010
00010101
00000010
10110000
00000000
10100010
00000010
00010110
00000010
10110001
00000000
01010001
00000010
10110010
00000000
10100001
00000001
01010100
00000011
00011011
00000001
00010111
10110110
11011110
00000001
01011000
00000011
00011011
00000001
00011000
10100110
11011110
00000001
01010000
00000011
00011011
00000000
10100010
00000001
00011001
10110110
11101010
00000001
00011010
10100110
11110001
00000111
11111000
00000000
00011011
00000001
01010001
00000100
00000111
11110110
00000000
00011011
00000001
01010010
00000100
00000010
00011011
00000000
11100000
00000010
10100100
00001000
11111111
01111011
10101110
